id,number,faction,createdBy,updatedBy,createdAt,updatedAt
,939,SU,Bot#0000,Bot#0000,2022-03-05T21:40:46.054Z,2022-03-05T21:40:46.054Z
,940,SU,Bot#0000,Bot#0000,2022-03-05T21:40:46.054Z,2022-03-05T21:40:46.054Z
,941,SU,Bot#0000,Bot#0000,2022-03-05T21:40:46.054Z,2022-03-05T21:40:46.054Z
,942,SU,Bot#0000,Bot#0000,2022-03-05T21:40:46.054Z,2022-03-05T21:40:46.054Z
,943,SU,Bot#0000,Bot#0000,2022-03-05T21:40:46.054Z,2022-03-05T21:40:46.054Z
,944,US,Bot#0000,Bot#0000,2022-03-05T21:40:46.054Z,2022-03-05T21:40:46.054Z
,945,US,Bot#0000,Bot#0000,2022-03-05T21:40:46.054Z,2022-03-05T21:40:46.054Z
,947,SU,Bot#0000,Bot#0000,2022-03-05T21:40:46.054Z,2022-03-05T21:40:46.054Z
,946,SU,Bot#0000,Bot#0000,2022-03-05T21:40:46.054Z,2022-03-05T21:40:46.054Z
,948,SU,Bot#0000,Bot#0000,2022-03-05T21:40:46.054Z,2022-03-05T21:40:46.054Z
,949,US,Bot#0000,Bot#0000,2022-03-05T21:40:46.054Z,2022-03-05T21:40:46.054Z
,950,GE,Bot#0000,Bot#0000,2022-03-05T21:40:46.054Z,2022-03-05T21:40:46.054Z
,951,GE,Bot#0000,Bot#0000,2022-03-05T21:40:46.054Z,2022-03-05T21:40:46.054Z
,952,SU,Bot#0000,Bot#0000,2022-03-05T21:40:46.054Z,2022-03-05T21:40:46.054Z
,953,SU,Bot#0000,Bot#0000,2022-03-05T21:40:46.054Z,2022-03-05T21:40:46.054Z
,954,SU,Bot#0000,Bot#0000,2022-03-05T21:40:46.054Z,2022-03-05T21:40:46.054Z
,955,GE,Bot#0000,Bot#0000,2022-03-05T21:40:46.054Z,2022-03-05T21:40:46.054Z
,956,US,Bot#0000,Bot#0000,2022-03-05T21:40:46.054Z,2022-03-05T21:40:46.054Z
,957,US,Bot#0000,Bot#0000,2022-03-05T21:40:46.054Z,2022-03-05T21:40:46.054Z
,958,US,Bot#0000,Bot#0000,2022-03-05T21:40:46.054Z,2022-03-05T21:40:46.054Z
,959,US,Bot#0000,Bot#0000,2022-03-05T21:40:46.054Z,2022-03-05T21:40:46.054Z
,960,US,Bot#0000,Bot#0000,2022-03-05T21:40:46.054Z,2022-03-05T21:40:46.054Z
,961,US,Bot#0000,Bot#0000,2022-03-05T21:40:46.054Z,2022-03-05T21:40:46.054Z
,962,SU,Bot#0000,Bot#0000,2022-03-05T21:40:46.054Z,2022-03-05T21:40:46.054Z
,963,SU,Bot#0000,Bot#0000,2022-03-05T21:40:46.054Z,2022-03-05T21:40:46.054Z
,964,SU,Bot#0000,Bot#0000,2022-03-05T21:40:46.054Z,2022-03-05T21:40:46.054Z
,965,GE,Bot#0000,Bot#0000,2022-03-05T21:40:46.054Z,2022-03-05T21:40:46.054Z
,966,US,Bot#0000,Bot#0000,2022-03-05T21:40:46.054Z,2022-03-05T21:40:46.054Z
,967,US,Bot#0000,Bot#0000,2022-03-05T21:40:46.054Z,2022-03-05T21:40:46.054Z
,968,US,Bot#0000,Bot#0000,2022-03-05T21:40:46.054Z,2022-03-05T21:40:46.054Z
,969,US,Bot#0000,Bot#0000,2022-03-05T21:40:46.054Z,2022-03-05T21:40:46.054Z
,970,GE,Bot#0000,Bot#0000,2022-03-05T21:40:46.054Z,2022-03-05T21:40:46.054Z
,971,GE,Bot#0000,Bot#0000,2022-03-05T21:40:46.054Z,2022-03-05T21:40:46.054Z
,972,GE,Bot#0000,Bot#0000,2022-03-05T21:40:46.054Z,2022-03-05T21:40:46.054Z
,973,GE,Bot#0000,Bot#0000,2022-03-05T21:40:46.054Z,2022-03-05T21:40:46.054Z
,974,US,Bot#0000,Bot#0000,2022-03-05T21:40:46.054Z,2022-03-05T21:40:46.054Z
,975,US,Bot#0000,Bot#0000,2022-03-05T21:40:46.054Z,2022-03-05T21:40:46.054Z
,976,US,Bot#0000,Bot#0000,2022-03-05T21:40:46.054Z,2022-03-05T21:40:46.054Z
,977,US,Bot#0000,Bot#0000,2022-03-05T21:40:46.054Z,2022-03-05T21:40:46.054Z
,978,US,Bot#0000,Bot#0000,2022-03-05T21:40:46.054Z,2022-03-05T21:40:46.054Z
,979,US,Bot#0000,Bot#0000,2022-03-05T21:40:46.054Z,2022-03-05T21:40:46.054Z
,980,US,Bot#0000,Bot#0000,2022-03-05T21:40:46.054Z,2022-03-05T21:40:46.054Z
,981,US,Bot#0000,Bot#0000,2022-03-05T21:40:46.054Z,2022-03-05T21:40:46.054Z
,982,US,Bot#0000,Bot#0000,2022-03-05T21:40:46.054Z,2022-03-05T21:40:46.054Z
,983,US,Bot#0000,Bot#0000,2022-03-05T21:40:46.054Z,2022-03-05T21:40:46.054Z
,984,US,Bot#0000,Bot#0000,2022-03-05T21:40:46.054Z,2022-03-05T21:40:46.054Z
,985,US,Bot#0000,Bot#0000,2022-03-05T21:40:46.054Z,2022-03-05T21:40:46.054Z
,986,US,Bot#0000,Bot#0000,2022-03-05T21:40:46.054Z,2022-03-05T21:40:46.054Z
,987,US,Bot#0000,Bot#0000,2022-03-05T21:40:46.054Z,2022-03-05T21:40:46.054Z
,988,US,Bot#0000,Bot#0000,2022-03-05T21:40:46.054Z,2022-03-05T21:40:46.054Z
,989,US,Bot#0000,Bot#0000,2022-03-05T21:40:46.054Z,2022-03-05T21:40:46.054Z
,990,GE,Bot#0000,Bot#0000,2022-03-05T21:40:46.054Z,2022-03-05T21:40:46.054Z
,991,US,Bot#0000,Bot#0000,2022-03-05T21:40:46.054Z,2022-03-05T21:40:46.054Z
,992,US,Bot#0000,Bot#0000,2022-03-05T21:40:46.054Z,2022-03-05T21:40:46.054Z
,993,GE,Bot#0000,Bot#0000,2022-03-05T21:40:46.054Z,2022-03-05T21:40:46.054Z
,994,US,Bot#0000,Bot#0000,2022-03-05T21:40:46.054Z,2022-03-05T21:40:46.054Z
,995,US,Bot#0000,Bot#0000,2022-03-05T21:40:46.054Z,2022-03-05T21:40:46.054Z
,996,GE,Bot#0000,Bot#0000,2022-03-05T21:40:46.054Z,2022-03-05T21:40:46.054Z
,997,SU,Bot#0000,Bot#0000,2022-03-05T21:40:46.054Z,2022-03-05T21:40:46.054Z
,998,SU,Bot#0000,Bot#0000,2022-03-05T21:40:46.054Z,2022-03-05T21:40:46.054Z
,999,GE,Bot#0000,Bot#0000,2022-03-05T21:40:46.054Z,2022-03-05T21:40:46.054Z
,1000,GE,Bot#0000,Bot#0000,2022-03-05T21:40:46.054Z,2022-03-05T21:40:46.054Z
,1001,GE,Bot#0000,Bot#0000,2022-03-05T21:40:46.054Z,2022-03-05T21:40:46.054Z
,1002,GE,Bot#0000,Bot#0000,2022-03-05T21:40:46.054Z,2022-03-05T21:40:46.054Z
,1003,GE,Bot#0000,Bot#0000,2022-03-05T21:40:46.054Z,2022-03-05T21:40:46.054Z
,1004,GE,Bot#0000,Bot#0000,2022-03-05T21:40:46.054Z,2022-03-05T21:40:46.054Z
,1005,US,Bot#0000,Bot#0000,2022-03-05T21:40:46.054Z,2022-03-05T21:40:46.054Z
,1006,US,Bot#0000,Bot#0000,2022-03-05T21:40:46.054Z,2022-03-05T21:40:46.054Z
,1007,US,Bot#0000,Bot#0000,2022-03-05T21:40:46.054Z,2022-03-05T21:40:46.054Z
,1008,US,Bot#0000,Bot#0000,2022-03-05T21:40:46.054Z,2022-03-05T21:40:46.054Z
,1009,GE,Bot#0000,Bot#0000,2022-03-05T21:40:46.054Z,2022-03-05T21:40:46.054Z
,1010,GE,Bot#0000,Bot#0000,2022-03-05T21:40:46.054Z,2022-03-05T21:40:46.054Z
,1011,GE,Bot#0000,Bot#0000,2022-03-05T21:40:46.054Z,2022-03-05T21:40:46.054Z
,1012,GE,Bot#0000,Bot#0000,2022-03-05T21:40:46.054Z,2022-03-05T21:40:46.054Z
,1013,GE,Bot#0000,Bot#0000,2022-03-05T21:40:46.054Z,2022-03-05T21:40:46.054Z
,1014,GE,Bot#0000,Bot#0000,2022-03-05T21:40:46.054Z,2022-03-05T21:40:46.054Z
,1015,US,Bot#0000,Bot#0000,2022-03-05T21:40:46.054Z,2022-03-05T21:40:46.054Z
,1016,US,Bot#0000,Bot#0000,2022-03-05T21:40:46.054Z,2022-03-05T21:40:46.054Z
,1017,US,Bot#0000,Bot#0000,2022-03-05T21:40:46.054Z,2022-03-05T21:40:46.054Z
,1018,GE,Bot#0000,Bot#0000,2022-03-05T21:40:46.054Z,2022-03-05T21:40:46.054Z
,1019,SU,Bot#0000,Bot#0000,2022-03-05T21:40:46.054Z,2022-03-05T21:40:46.054Z
,1020,US,Bot#0000,Bot#0000,2022-03-05T21:40:46.054Z,2022-03-05T21:40:46.054Z
,1021,GE,Bot#0000,Bot#0000,2022-03-05T21:40:46.054Z,2022-03-05T21:40:46.054Z
,1022,SU,Bot#0000,Bot#0000,2022-03-05T21:40:46.054Z,2022-03-05T21:40:46.054Z
,1023,SU,Bot#0000,Bot#0000,2022-03-05T21:40:46.054Z,2022-03-05T21:40:46.054Z
,1024,SU,Bot#0000,Bot#0000,2022-03-05T21:40:46.054Z,2022-03-05T21:40:46.054Z
,1025,SU,Bot#0000,Bot#0000,2022-03-05T21:40:46.054Z,2022-03-05T21:40:46.054Z
,1026,SU,Bot#0000,Bot#0000,2022-03-05T21:40:46.054Z,2022-03-05T21:40:46.054Z
,1027,SU,Bot#0000,Bot#0000,2022-03-05T21:40:46.054Z,2022-03-05T21:40:46.054Z
,1028,GE,Bot#0000,Bot#0000,2022-03-05T21:40:46.054Z,2022-03-05T21:40:46.054Z
,1029,SU,Bot#0000,Bot#0000,2022-03-05T21:40:46.054Z,2022-03-05T21:40:46.054Z
,1030,SU,Bot#0000,Bot#0000,2022-03-05T21:40:46.054Z,2022-03-05T21:40:46.054Z
,1031,SU,Bot#0000,Bot#0000,2022-03-05T21:40:46.054Z,2022-03-05T21:40:46.054Z
,1032,US,Bot#0000,Bot#0000,2022-03-05T21:40:46.054Z,2022-03-05T21:40:46.054Z
,1033,US,Bot#0000,Bot#0000,2022-03-05T21:40:46.054Z,2022-03-05T21:40:46.054Z
,1034,US,Bot#0000,Bot#0000,2022-03-05T21:40:46.054Z,2022-03-05T21:40:46.054Z
,1035,SU,Bot#0000,Bot#0000,2022-03-05T21:40:46.054Z,2022-03-05T21:40:46.054Z
,1036,GE,Bot#0000,Bot#0000,2022-03-05T21:40:46.054Z,2022-03-05T21:40:46.054Z
,1037,SU,Bot#0000,Bot#0000,2022-03-05T21:40:46.054Z,2022-03-05T21:40:46.054Z
,1038,SU,Bot#0000,Bot#0000,2022-03-05T21:40:46.054Z,2022-03-05T21:40:46.054Z
,1039,US,Bot#0000,Bot#0000,2022-03-05T21:40:46.054Z,2022-03-05T21:40:46.054Z
,1040,GE,Bot#0000,Bot#0000,2022-03-05T21:40:46.054Z,2022-03-05T21:40:46.054Z
,1041,GE,Bot#0000,Bot#0000,2022-03-05T21:40:46.054Z,2022-03-05T21:40:46.054Z
,1042,US,Bot#0000,Bot#0000,2022-03-05T21:40:46.054Z,2022-03-05T21:40:46.054Z
,1043,US,Bot#0000,Bot#0000,2022-03-05T21:40:46.054Z,2022-03-05T21:40:46.054Z
,1044,SU,Bot#0000,Bot#0000,2022-03-05T21:40:46.054Z,2022-03-05T21:40:46.054Z
,1045,SU,Bot#0000,Bot#0000,2022-03-05T21:40:46.054Z,2022-03-05T21:40:46.054Z
,1046,US,Bot#0000,Bot#0000,2022-03-05T21:40:46.054Z,2022-03-05T21:40:46.054Z
,1047,SU,Bot#0000,Bot#0000,2022-03-05T21:40:46.054Z,2022-03-05T21:40:46.054Z
,1048,US,Bot#0000,Bot#0000,2022-03-05T21:40:46.054Z,2022-03-05T21:40:46.054Z
,1049,US,Bot#0000,Bot#0000,2022-03-05T21:40:46.054Z,2022-03-05T21:40:46.054Z
,1050,US,Bot#0000,Bot#0000,2022-03-05T21:40:46.054Z,2022-03-05T21:40:46.054Z
,1051,US,Bot#0000,Bot#0000,2022-03-05T21:40:46.054Z,2022-03-05T21:40:46.054Z
,1052,US,Bot#0000,Bot#0000,2022-03-05T21:40:46.054Z,2022-03-05T21:40:46.054Z
,1053,GE,Bot#0000,Bot#0000,2022-03-05T21:40:46.054Z,2022-03-05T21:40:46.054Z
,1054,GE,Bot#0000,Bot#0000,2022-03-05T21:40:46.054Z,2022-03-05T21:40:46.054Z
,1055,US,Bot#0000,Bot#0000,2022-03-05T21:40:46.054Z,2022-03-05T21:40:46.054Z
,1056,GE,Bot#0000,Bot#0000,2022-03-05T21:40:46.054Z,2022-03-05T21:40:46.054Z
,1057,SU,Bot#0000,Bot#0000,2022-03-05T21:40:46.054Z,2022-03-05T21:40:46.054Z
,1058,SU,Bot#0000,Bot#0000,2022-03-05T21:40:46.054Z,2022-03-05T21:40:46.054Z
,1059,GE,Bot#0000,Bot#0000,2022-03-05T21:40:46.054Z,2022-03-05T21:40:46.054Z
,1060,GE,Bot#0000,Bot#0000,2022-03-05T21:40:46.054Z,2022-03-05T21:40:46.054Z
,1061,GE,Bot#0000,Bot#0000,2022-03-05T21:40:46.054Z,2022-03-05T21:40:46.054Z
,1062,GE,Bot#0000,Bot#0000,2022-03-05T21:40:46.054Z,2022-03-05T21:40:46.054Z
,1063,GE,Bot#0000,Bot#0000,2022-03-05T21:40:46.054Z,2022-03-05T21:40:46.054Z
,1064,GE,Bot#0000,Bot#0000,2022-03-05T21:40:46.054Z,2022-03-05T21:40:46.054Z
,1065,GE,Bot#0000,Bot#0000,2022-03-05T21:40:46.054Z,2022-03-05T21:40:46.054Z
,1066,GE,Bot#0000,Bot#0000,2022-03-05T21:40:46.054Z,2022-03-05T21:40:46.054Z
,1067,GE,Bot#0000,Bot#0000,2022-03-05T21:40:46.054Z,2022-03-05T21:40:46.054Z
,1068,GE,Bot#0000,Bot#0000,2022-03-05T21:40:46.054Z,2022-03-05T21:40:46.054Z
,1069,GE,Bot#0000,Bot#0000,2022-03-05T21:40:46.054Z,2022-03-05T21:40:46.054Z
,1070,GE,Bot#0000,Bot#0000,2022-03-05T21:40:46.054Z,2022-03-05T21:40:46.054Z
,1071,GE,Bot#0000,Bot#0000,2022-03-05T21:40:46.054Z,2022-03-05T21:40:46.054Z
,1072,GE,Bot#0000,Bot#0000,2022-03-05T21:40:46.054Z,2022-03-05T21:40:46.054Z
,1073,SU,Bot#0000,Bot#0000,2022-03-05T21:40:46.054Z,2022-03-05T21:40:46.054Z
,1074,US,Bot#0000,Bot#0000,2022-03-05T21:40:46.054Z,2022-03-05T21:40:46.054Z
,1075,SU,Bot#0000,Bot#0000,2022-03-05T21:40:46.054Z,2022-03-05T21:40:46.054Z
,1076,GE,Bot#0000,Bot#0000,2022-03-05T21:40:46.054Z,2022-03-05T21:40:46.054Z
,1077,GE,Bot#0000,Bot#0000,2022-03-05T21:40:46.054Z,2022-03-05T21:40:46.054Z
,1078,GE,Bot#0000,Bot#0000,2022-03-05T21:40:46.054Z,2022-03-05T21:40:46.054Z
,1079,SU,Bot#0000,Bot#0000,2022-03-05T21:40:46.054Z,2022-03-05T21:40:46.054Z
,1080,SU,Bot#0000,Bot#0000,2022-03-05T21:40:46.054Z,2022-03-05T21:40:46.054Z
,1081,SU,Bot#0000,Bot#0000,2022-03-05T21:40:46.054Z,2022-03-05T21:40:46.054Z
,1082,SU,Bot#0000,Bot#0000,2022-03-05T21:40:46.054Z,2022-03-05T21:40:46.054Z
,1083,SU,Bot#0000,Bot#0000,2022-03-05T21:40:46.054Z,2022-03-05T21:40:46.054Z
,1084,SU,Bot#0000,Bot#0000,2022-03-05T21:40:46.054Z,2022-03-05T21:40:46.054Z
,1085,US,Bot#0000,Bot#0000,2022-03-05T21:40:46.054Z,2022-03-05T21:40:46.054Z
,1086,GE,Bot#0000,Bot#0000,2022-03-05T21:40:46.054Z,2022-03-05T21:40:46.054Z
,1087,GE,Bot#0000,Bot#0000,2022-03-05T21:40:46.054Z,2022-03-05T21:40:46.054Z
,1088,GE,Bot#0000,Bot#0000,2022-03-05T21:40:46.054Z,2022-03-05T21:40:46.054Z
,1089,US,Bot#0000,Bot#0000,2022-03-05T21:40:46.054Z,2022-03-05T21:40:46.054Z
,1090,SU,Bot#0000,Bot#0000,2022-03-05T21:40:46.054Z,2022-03-05T21:40:46.054Z
,1091,SU,Bot#0000,Bot#0000,2022-03-05T21:40:46.054Z,2022-03-05T21:40:46.054Z
,1092,US,Bot#0000,Bot#0000,2022-03-05T21:40:46.054Z,2022-03-05T21:40:46.054Z
,1093,SU,Bot#0000,Bot#0000,2022-03-05T21:40:46.054Z,2022-03-05T21:40:46.054Z
,1094,GE,Bot#0000,Bot#0000,2022-03-05T21:40:46.054Z,2022-03-05T21:40:46.054Z
,1095,SU,Bot#0000,Bot#0000,2022-03-05T21:40:46.054Z,2022-03-05T21:40:46.054Z
,1096,US,Bot#0000,Bot#0000,2022-03-05T21:40:46.054Z,2022-03-05T21:40:46.054Z
,1097,GE,Bot#0000,Bot#0000,2022-03-05T21:40:46.054Z,2022-03-05T21:40:46.054Z
,1098,GE,Bot#0000,Bot#0000,2022-03-05T21:40:46.054Z,2022-03-05T21:40:46.054Z
,1099,SU,Bot#0000,Bot#0000,2022-03-05T21:40:46.054Z,2022-03-05T21:40:46.054Z
,1100,SU,Bot#0000,Bot#0000,2022-03-05T21:40:46.054Z,2022-03-05T21:40:46.054Z
,1101,GE,Bot#0000,Bot#0000,2022-03-05T21:40:46.054Z,2022-03-05T21:40:46.054Z
,1102,GE,Bot#0000,Bot#0000,2022-03-05T21:40:46.054Z,2022-03-05T21:40:46.054Z
,1103,SU,Bot#0000,Bot#0000,2022-03-05T21:40:46.054Z,2022-03-05T21:40:46.054Z
,1104,SU,Bot#0000,Bot#0000,2022-03-05T21:40:46.054Z,2022-03-05T21:40:46.054Z
,1105,GE,Bot#0000,Bot#0000,2022-03-05T21:40:46.054Z,2022-03-05T21:40:46.054Z
,1106,SU,Bot#0000,Bot#0000,2022-03-05T21:40:46.054Z,2022-03-05T21:40:46.054Z
,1107,GE,Bot#0000,Bot#0000,2022-03-05T21:40:46.054Z,2022-03-05T21:40:46.054Z
,1108,GE,Bot#0000,Bot#0000,2022-03-05T21:40:46.054Z,2022-03-05T21:40:46.054Z
,1109,GE,Bot#0000,Bot#0000,2022-03-05T21:40:46.054Z,2022-03-05T21:40:46.054Z
,1110,GE,Bot#0000,Bot#0000,2022-03-05T21:40:46.054Z,2022-03-05T21:40:46.054Z
,1111,SU,Bot#0000,Bot#0000,2022-03-05T21:40:46.054Z,2022-03-05T21:40:46.054Z
,1112,GE,Bot#0000,Bot#0000,2022-03-05T21:40:46.054Z,2022-03-05T21:40:46.054Z
,1113,GE,Bot#0000,Bot#0000,2022-03-05T21:40:46.054Z,2022-03-05T21:40:46.054Z
,1114,SU,Bot#0000,Bot#0000,2022-03-05T21:40:46.054Z,2022-03-05T21:40:46.054Z
,1115,GE,Bot#0000,Bot#0000,2022-03-05T21:40:46.054Z,2022-03-05T21:40:46.054Z
,1116,GE,Bot#0000,Bot#0000,2022-03-05T21:40:46.054Z,2022-03-05T21:40:46.054Z
,1117,GE,Bot#0000,Bot#0000,2022-03-05T21:40:46.054Z,2022-03-05T21:40:46.054Z
,1118,SU,Bot#0000,Bot#0000,2022-03-05T21:40:46.054Z,2022-03-05T21:40:46.054Z
,1119,US,Bot#0000,Bot#0000,2022-03-05T21:40:46.054Z,2022-03-05T21:40:46.054Z
,1120,SU,Bot#0000,Bot#0000,2022-03-05T21:40:46.054Z,2022-03-05T21:40:46.054Z
,1121,SU,Bot#0000,Bot#0000,2022-03-05T21:40:46.054Z,2022-03-05T21:40:46.054Z
,1122,US,Bot#0000,Bot#0000,2022-03-05T21:40:46.054Z,2022-03-05T21:40:46.054Z
,1123,US,Bot#0000,Bot#0000,2022-03-05T21:40:46.054Z,2022-03-05T21:40:46.054Z
,1124,US,Bot#0000,Bot#0000,2022-03-05T21:40:46.054Z,2022-03-05T21:40:46.054Z
,1125,GE,Bot#0000,Bot#0000,2022-03-05T21:40:46.054Z,2022-03-05T21:40:46.054Z
,1126,US,Bot#0000,Bot#0000,2022-03-05T21:40:46.054Z,2022-03-05T21:40:46.054Z
,1127,US,Bot#0000,Bot#0000,2022-03-05T21:40:46.054Z,2022-03-05T21:40:46.054Z
,1128,GE,Bot#0000,Bot#0000,2022-03-05T21:40:46.054Z,2022-03-05T21:40:46.054Z
,1129,SU,Bot#0000,Bot#0000,2022-03-05T21:40:46.054Z,2022-03-05T21:40:46.054Z
,1130,GE,Bot#0000,Bot#0000,2022-03-05T21:40:46.054Z,2022-03-05T21:40:46.054Z
,1131,GE,Bot#0000,Bot#0000,2022-03-05T21:40:46.054Z,2022-03-05T21:40:46.054Z
,1132,GE,Bot#0000,Bot#0000,2022-03-05T21:40:46.054Z,2022-03-05T21:40:46.054Z
,1133,GE,Bot#0000,Bot#0000,2022-03-05T21:40:46.054Z,2022-03-05T21:40:46.054Z
,1134,GE,Bot#0000,Bot#0000,2022-03-05T21:40:46.054Z,2022-03-05T21:40:46.054Z
,1135,GE,Bot#0000,Bot#0000,2022-03-05T21:40:46.054Z,2022-03-05T21:40:46.054Z
,1136,US,Bot#0000,Bot#0000,2022-03-05T21:40:46.054Z,2022-03-05T21:40:46.054Z
,1137,US,Bot#0000,Bot#0000,2022-03-05T21:40:46.054Z,2022-03-05T21:40:46.054Z
,1138,US,Bot#0000,Bot#0000,2022-03-05T21:40:46.054Z,2022-03-05T21:40:46.054Z
,1139,SU,Bot#0000,Bot#0000,2022-03-05T21:40:46.054Z,2022-03-05T21:40:46.054Z
,1140,SU,Bot#0000,Bot#0000,2022-03-05T21:40:46.054Z,2022-03-05T21:40:46.054Z
,1141,SU,Bot#0000,Bot#0000,2022-03-05T21:40:46.054Z,2022-03-05T21:40:46.054Z
,1142,SU,Bot#0000,Bot#0000,2022-03-05T21:40:46.054Z,2022-03-05T21:40:46.054Z
,1143,SU,Bot#0000,Bot#0000,2022-03-05T21:40:46.054Z,2022-03-05T21:40:46.054Z
,1144,US,Bot#0000,Bot#0000,2022-03-05T21:40:46.054Z,2022-03-05T21:40:46.054Z
,1145,US,Bot#0000,Bot#0000,2022-03-05T21:40:46.054Z,2022-03-05T21:40:46.054Z
,1146,SU,Bot#0000,Bot#0000,2022-03-05T21:40:46.054Z,2022-03-05T21:40:46.054Z
,1147,GE,Bot#0000,Bot#0000,2022-03-05T21:40:46.054Z,2022-03-05T21:40:46.054Z
,1148,SU,Bot#0000,Bot#0000,2022-03-05T21:40:46.054Z,2022-03-05T21:40:46.054Z
,1149,GE,Bot#0000,Bot#0000,2022-03-05T21:40:46.054Z,2022-03-05T21:40:46.054Z
,1150,SU,Bot#0000,Bot#0000,2022-03-05T21:40:46.054Z,2022-03-05T21:40:46.054Z
,1151,US,Bot#0000,Bot#0000,2022-03-05T21:40:46.054Z,2022-03-05T21:40:46.054Z
,1152,SU,Bot#0000,Bot#0000,2022-03-05T21:40:46.054Z,2022-03-05T21:40:46.054Z
,1153,SU,Bot#0000,Bot#0000,2022-03-05T21:40:46.054Z,2022-03-05T21:40:46.054Z
,1154,SU,Bot#0000,Bot#0000,2022-03-05T21:40:46.054Z,2022-03-05T21:40:46.054Z
,1155,SU,Bot#0000,Bot#0000,2022-03-05T21:40:46.054Z,2022-03-05T21:40:46.054Z
,1156,SU,Bot#0000,Bot#0000,2022-03-05T21:40:46.054Z,2022-03-05T21:40:46.054Z
,1157,US,Bot#0000,Bot#0000,2022-03-05T21:40:46.054Z,2022-03-05T21:40:46.054Z
,1158,SU,Bot#0000,Bot#0000,2022-03-05T21:40:46.054Z,2022-03-05T21:40:46.054Z
